{
	"Cities" :
	[
		{
			"name" : "Stolin",
			"country_id" : "1"
		},
		{
			"name" : "Molodechno",
			"country_id" : "1"
		},
		{
			"name" : "Moskva",
			"country_id" : "2"
		},
		{
			"name" : "Piter",
			"country_id" : "2"
		},
		{
			"name" : "Pinsk",
			"country_id" : "1"
		},
		{
			"name" : "Tver",
			"country_id" : "2"
		}
	],
	"Countries" :
	[
		{
			"name":"belarus"
		},
		{
			"name":"Russia"
		}
	]
}